#147 - Salonica

owner = A65
controller = A65
add_core = A65
culture = bluefoot_halfling
religion = regent_court
hre = no
base_tax = 4
base_production = 4
trade_goods = grain
base_manpower = 4
capital = "" 
is_city = yes









