#273 - Latgalia / Inflanty Duchy

owner = A92
controller = A92
add_core = A92
culture = esmari
religion = regent_court

hre = yes

base_tax = 4
base_production = 4
base_manpower = 2

trade_goods = grain

capital = ""

is_city = yes







