#523 - Zorntanas

owner = F18
controller = F18
add_core = F18
culture = sun_elf
religion = bulwari_sun_cult

base_tax = 3
base_production = 2
base_manpower = 2

trade_goods = grain

capital = ""

is_city = yes











add_permanent_province_modifier = {
	name = human_minority_coexisting_large
	duration = -1
}
