# No previous file for Chiang Rai
owner = F39
controller = F39
add_core = F39
culture = zanite
religion = bulwari_sun_cult

hre = no

base_tax = 5
base_production = 5
base_manpower = 3

trade_goods = grain

capital = ""

is_city = yes













add_permanent_province_modifier = {
	name = elven_minority_integrated_large
	duration = -1
}