A11_wine_missions_slot = {
	slot = 1
	generic = no
	ai = yes
	potential = {
		tag = A11
		
	}
	has_country_shield = yes
	
	A11_wine_classic = {
		icon = mission_green_village
		required_missions = {  }
		position = 1
		
		provinces_to_highlight = {
			province_id = 49
		}
		
		trigger = {
			49 = {
				owned_by = ROOT
				has_production_building_trigger = yes
			}
		}

		effect = {
			49 = {
				add_base_production = 2
				add_province_modifier = {
					name = "pearlywine_vintage"
					duration = 7300 #20 years
				}
			}
		}
	}
	
	A11_wine_modern = {
		icon = mission_guarded_market
		required_missions = { A11_wine_classic }
		position = 2
		
		provinces_to_highlight = {
			province_id = 41
		}
		
		trigger = {
			41 = {
				owned_by = ROOT
				has_production_building_trigger = yes
			}
		}

		effect = {
			41 = {
				add_base_production = 2
				add_province_modifier = {
					name = "pearlywine_modern"
					duration = 7300 #20 years
				}
			}
		}
	}
	
	A11_wine_perfect = {
		icon = mission_dominate_home_trade_node
		required_missions = { A11_wine_modern }
		position = 3
		
		trigger = {
			OR = {
				trading_bonus = {
					trade_goods = fungi
					value = yes
				}
				fungi = 1
				any_subject_country = {
					fungi = 1
				}
			}
		}

		effect = {
			41 = {
				add_base_production = 2
				add_province_modifier = {
					name = "noble_wine"
					duration = -1
				}
			}
			49 = {
				add_base_production = 2
				add_province_modifier = {
					name = "noble_wine"
					duration = -1
				}
			}
		}
	}
	
	A11_dominate_eordand = {
		icon = mission_settlers_north_america
		required_missions = { A11_western_pearls }
		position = 6
		
		provinces_to_highlight = {
			OR = { 
				region = haraf_region
				region = tor_nayyi_region
				region = randrunnse_region
				region = glorelthir_region
				region = sarmadfar_region
			}
		}
		
		trigger = {
			1720 = {
				is_strongest_trade_power = ROOT
			}
			1690 = {
				is_strongest_trade_power = ROOT
			}
			1693 = {
				is_strongest_trade_power = ROOT
			}
			1683 = {
				is_strongest_trade_power = ROOT
			}
			1681 = {
				is_strongest_trade_power = ROOT
			}
		}

		effect = {
			add_country_modifier = {
				name = "pearlsedge_rules_the_waves"
				duration = 9125 #25 years
			}
		}
	}
}

A11_trade_missions_slot = {
	slot = 2
	generic = no
	ai = yes
	potential = {
		tag = A11
	}
	has_country_shield = yes
	
	A11_siloriel_friends = {
		icon = mission_princess_writing
		required_missions = {  }
		position = 1
		
		
		trigger = {
			OR = {
				A01 = {
					alliance_with = ROOT
					}
				NOT = { 
					exists = A01
				}
				}
			}

		effect = {
			tretunica_area = {
				limit = {
					NOT = { is_core = ROOT }
					NOT = { owned_by = ROOT }
				}
				add_permanent_claim = ROOT
			}
		}
	}
	
	A11_fall_of_tretun = {
		icon = mission_cossack_cavalry
		required_missions = { A11_siloriel_friends }
		position = 2
		provinces_to_highlight = {
			OR = {
				area = tretunica_area
			}
			NOT = {
				country_or_non_sovereign_subject_holds = ROOT
			}
		}
		trigger = {
			tretunica_area = {
				type = all
				country_or_non_sovereign_subject_holds = ROOT
			}
		}
		effect = {
			eastern_winebay_area = {
				limit = {
					NOT = { is_core = ROOT }
					NOT = { owned_by = ROOT }
				}
				add_permanent_claim = ROOT
			}
		}
	}
	
	A11_conquest_of_roilsard = {
		icon = mission_build_up_to_force_limit
		required_missions = { A11_fall_of_tretun }
		position = 3
		provinces_to_highlight = {
			OR = {
				area = eastern_winebay_area
			}
			NOT = {
				country_or_non_sovereign_subject_holds = ROOT
			}
		}
		trigger = {
			eastern_winebay_area = {
				type = all
				country_or_non_sovereign_subject_holds = ROOT
			}
		}
		effect = {
			add_accepted_culture = roilsardi
			add_country_modifier = {
				name = "army_enthusiasm"
				duration = 9125 #25 years
			}
		}
	}
	
	A11_defenders_of_the_dameshead = {
		icon = mission_establish_high_seas_navy
		required_missions = { A11_a_new_world }
		position = 4
		
		trigger = {
			custom_trigger_tooltip = {
				tooltip = navy_size_30_tooltip
				navy_size = 30
			}
			navy_size_percentage = 0.9
		}
		effect = {
			akan_isles_area = {
				limit = {
					NOT = { is_core = ROOT }
					NOT = { owned_by = ROOT }
				}
				add_permanent_claim = ROOT
			}
			venail_area = {
				limit = {
					NOT = { is_core = ROOT }
					NOT = { owned_by = ROOT }
				}
				add_permanent_claim = ROOT
			}
			376 = { add_permanent_claim = ROOT }
			51 = { add_permanent_claim = ROOT }
		}
	}

	
	A11_western_pearls = {
		icon = mission_landsknecht_soldier
		required_missions = { A11_new_breadbasket }
		position = 5
		
		trigger = {
			custom_trigger_tooltip = {
				tooltip = pearl_west_colony
				any_subject_country = {
					is_colonial_nation_of = A11
					capital_scope = { colonial_region = colonial_haraf }
					num_of_cities = 10
				}
			}
		}

		effect = {
			1681 = { add_trade_modifier = {
					who = A11
					duration = 5475
					power = 15
					key = STRONG_MERCHANTS
				}
			}
		}
	}
	
	A11_dominate_kheionai = {
		icon = mission_sea_battles
		required_missions = { A11_western_pearls }
		position = 6
		
		provinces_to_highlight = {
			OR = { 
				region = andic_reach_region
				region = devand_region
				region = alecand_region
				region = amadia_region
			}
		}
		
		trigger = {
			1731 = {
				is_strongest_trade_power = ROOT
			}
			1741 = {
				is_strongest_trade_power = ROOT
			}
			1553 = {
				is_strongest_trade_power = ROOT
			}
		}

		effect = {
			add_country_modifier = {
				name = "pearlsedge_rules_the_waves"
				duration = 9125 #25 years
			}
		}
	}
	
}

A11_diplomacy_missions_slot = {
	slot = 3
	generic = no
	ai = yes
	potential = {
		tag = A11
	}
	has_country_shield = yes
	
	A11_nation_of_traders = {
		icon = mission_establish_high_seas_navy
		required_missions = {  }
		position = 1
		
		trigger = {
			1270 = {
				trade_share = {
					country = A11
					share = 25
				}
			}
		}
		effect = {
			add_country_modifier = {
				name = "merchant_navy"
				duration = 9125 #25 years
			}
		}
	}
	
	A11_on_the_seas = {
		icon = mission_sea_battles
		required_missions = { A11_nation_of_traders }
		position = 2
		
		trigger = {
			43 = {
				AND = {
					owned_by = ROOT
					has_shipyard_building_trigger = yes
					has_dock_building_trigger = yes
				}
			}
			num_of_light_ship = 10
			
		}

		effect = {
			add_country_modifier = {
				name = "A11_people_of_the_seas"
				duration = 9125 #25 years
			}
		}
	}
	
	A11_a_new_world = {
		icon = mission_dominate_home_trade_node
		required_missions = { A11_on_the_seas }
		position = 3
		
		trigger = {
			has_idea_group = exploration_ideas
			has_idea = quest_for_the_new_world
			colonial_endralliande = {
						has_discovered = ROOT
					}
		}

		effect = {
			add_country_modifier = {
				name = "lorent_rediscovery_of_aelantir"
				duration = 9125 #25 years
			}
		}
	}
	
	A11_new_breadbasket = {
		icon = mission_rb_import_potatoes
		required_missions = { A11_a_new_world }
		position = 4
		
		trigger = {
			custom_trigger_tooltip = {
				tooltip = pearl_endralliande_colony
				any_subject_country = {
					is_colonial_nation_of = A11
					capital_scope = { colonial_region = colonial_endralliande }
					num_of_cities = 10
				}
			}
		}

		effect = {
			1504 = { add_trade_modifier = {						
					who = A11
					duration = 5475
					power = 15
					key = STRONG_MERCHANTS
				}
			}
		}
	}
	
	A11_central_pearls = {
		icon = mission_italian_condottiere
		required_missions = { A11_new_breadbasket }
		position = 5
		
		trigger = {
			custom_trigger_tooltip = {
				tooltip = pearl_central_colony
				any_subject_country = {
					is_colonial_nation_of = A11
					capital_scope = { colonial_region = colonial_isles }
					num_of_cities = 10
				}
			}
		}

		effect = {
			1527 = { add_trade_modifier = {
				who = A11
				duration = 5475
				power = 15
				key = STRONG_MERCHANTS
				}
			}
		}
	}
	
	A11_dominate_the_bay = {
		icon = mission_conquer_riga
		required_missions = { A11_central_pearls }
		position = 6
		
		provinces_to_highlight = {
			OR = { 
				region = ruined_isles_region
				region = endralliande_region
			}
		}
		
		trigger = {
			1504 = {
				is_strongest_trade_power = ROOT
			}
			1527 = {
				is_strongest_trade_power = ROOT
			}
		}

		effect = {
			add_country_modifier = {
				name = "pearlsedge_rules_the_waves"
				duration = 9125 #25 years
			}
		}
	}
}

A33_army_missions_slot = {
	slot = 4
	generic = no
	ai = yes
	potential = {
		tag = A11
	}
	has_country_shield = yes
	
	A11_pearl_white_army = {
		icon = mission_recruit_streltsy
		required_missions = { }
		position = 1
		provinces_to_highlight = {
		}
		trigger = {
			army_size_percentage = 1.0
		}
		effect = {
			woodwell_area = {
				limit = {
					NOT = { is_core = ROOT }
					NOT = { owned_by = ROOT }
				}
				add_permanent_claim = ROOT
			}
		}
	}
	
	A11_claim_the_woods = {
		icon = mission_burning_man
		required_missions = { A11_pearl_white_army }
		position = 2
		provinces_to_highlight = {
			OR = {
				area = woodwell_area
			}
			NOT = {
				country_or_non_sovereign_subject_holds = ROOT
			}
		}
		trigger = {
			woodwell_area = {
				type = all
				country_or_non_sovereign_subject_holds = ROOT
			}
		}
		effect = {
			carneteria_area = {
				limit = {
					NOT = { is_core = ROOT }
					NOT = { owned_by = ROOT }
				}
				add_permanent_claim = ROOT
			}
			neckcliffe_area = {
				limit = {
					NOT = { is_core = ROOT }
					NOT = { owned_by = ROOT }
				}
				add_permanent_claim = ROOT
			}
		}
	}
	
	A11_the_old_rivals = {
		icon = mission_hanseatic_city
		required_missions = { A11_claim_the_woods }
		position = 3
		provinces_to_highlight = {
			OR = {
				area = carneteria_area
				area = neckcliffe_area
			}
			NOT = {
				country_or_non_sovereign_subject_holds = ROOT
			}
		}
		trigger = {
			carneteria_area = {
				type = all
				country_or_non_sovereign_subject_holds = ROOT
			}
			neckcliffe_area = {
				type = all
				country_or_non_sovereign_subject_holds = ROOT
			}
		}
		effect = {
			windtower_area = {
				limit = {
					NOT = { is_core = ROOT }
					NOT = { owned_by = ROOT }
				}
				add_permanent_claim = ROOT
			}
			wesdam_area = {
				limit = {
					NOT = { is_core = ROOT }
					NOT = { owned_by = ROOT }
				}
				add_permanent_claim = ROOT
			}
		}
	}
	
	A11_wesdameric_ambitions = {
		icon = mission_unite_home_region
		required_missions = { A11_the_old_rivals }
		position = 4
		provinces_to_highlight = {
			OR = {
				area = windtower_area
				area = wesdam_area
			}
			NOT = {
				country_or_non_sovereign_subject_holds = ROOT
			}
		}
		trigger = {
			windtower_area = {
				type = all
				country_or_non_sovereign_subject_holds = ROOT
			}
			wesdam_area = {
				type = all
				country_or_non_sovereign_subject_holds = ROOT
			}
		}
		effect = {
			add_country_modifier = {
				name = "A11_wesdameric_hegemony"
				duration = -1
			}
		}
	}
	
	A11_southern_pearls = {
		icon = mission_iberian_conquistador
		required_missions = { A11_new_breadbasket }
		position = 5
		
		trigger = {
			custom_trigger_tooltip = {
				tooltip = pearl_south_colony
				any_subject_country = {
					is_colonial_nation_of = A11
					capital_scope = { colonial_region = colonial_lai_peninsula }
					num_of_cities = 10
				}
			}
		}

		effect = {
			1607 = { add_trade_modifier = {						
					who = A11
					duration = 5475
					power = 15
					key = STRONG_MERCHANTS
				}
			}
		}
	}
	
	A11_dominate_taychend = {
		icon = mission_ottoman_harem
		required_missions = { A11_southern_pearls }
		position = 6
		
		provinces_to_highlight = {
			OR = { 
				region = taychend_region
				region = east_effelai_region
				region = dry_coast_region
			}
		}
		
		trigger = {
			1544 = {
				is_strongest_trade_power = ROOT
			}
			1607 = {
				is_strongest_trade_power = ROOT
			}
			1539 = {
				is_strongest_trade_power = ROOT
			}
		}

		effect = {
			add_country_modifier = {
				name = "pearlsedge_rules_the_waves"
				duration = 9125 #25 years
			}
		}
	}
}	

A33_imperial_missions_slot = {
	slot = 5
	generic = no
	ai = yes
	potential = {
		tag = A11
	}
	has_country_shield = yes
	
	A11_imperial_ambitions = {
		icon = mission_diplomacy_missive
		required_missions = { }
		position = 1
		
		trigger = {
			calc_true_if = {
				all_elector = {
					preferred_emperor = ROOT
					}
				amount = 3
				}
		}
		
		effect = {
			add_prestige = 10
			add_country_modifier = {
				name = "pearlsedge_support"
				duration = 5475
			}
		}
	}
	
	A11_imperial_glory = {
		icon = mission_rb_control_electors
		required_missions = { A11_imperial_ambitions }
		position = 2
		
		trigger = {
			is_emperor = yes
			calc_true_if = {
				all_elector = {
					preferred_emperor = ROOT
					}
				amount = 5
				}
		}
		
		effect = {
			add_country_modifier = {
				name = "pearlsedge_emperor"
				duration = 5475
			}
		}
	}
	
	A11_imperial_faith = {
		icon = mission_city_prosperity
		required_missions = { A11_imperial_glory }
		position = 2
		provinces_to_highlight = {
			OR = {
				AND = {
					owner = {
						is_part_of_hre = yes
						NOT = { religion = root }
					}
				}
			}
		}
		
		trigger = {
			is_emperor = yes
			hre_religion_locked = yes
		}
		
		effect = {
			if = {
				limit = {
					religion = regent_court
				}
				add_country_modifier = {
					name = pearl_adean_empire
					duration = -1
				}
			}
			else_if = {
				limit = { 
					religion = corinite
				}
				add_country_modifier = {
					name = pearl_corin_empire
					duration = -1
				}
			}
		}
	}

	A11_imperial_unity = {
		icon = mission_city_prosperity
		required_missions = { A11_imperial_faith }
		position = 2
		provinces_to_highlight = {
			OR = {
				AND = {
					owner = { is_emperor = yes }
					root = { is_emperor = no }
				}
				AND = {
					is_part_of_hre = yes
					owner = {
						OR = {
							is_part_of_hre = no
							AND = {
								is_subject = yes
								overlord = { is_part_of_hre = no }
							}
						}
					}
				}
				owner = {
					is_part_of_hre = yes
					NOT = {
						has_opinion = {
							who = root
							value = 1
						}
					}
				}
			}
		}
		
		trigger = {
			is_emperor = yes
			OR = {
				hre_reform_passed = emperor_reichskrieg
				tag = Z01
				
			}
		}
		effect = {
			add_country_modifier = {
				name = trisferian_empire
				duration = -1
			}
			western_cannor_superregion = {
				limit = {
					NOT = { is_core = ROOT }
					NOT = { owned_by = ROOT }
				}
				add_permanent_claim = ROOT
			}
			akan_region = {
				limit = {
					NOT = { is_core = ROOT }
					NOT = { owned_by = ROOT }
				}
				add_permanent_claim = ROOT
			}
		}
	}
}