country_decisions = {

	invest_in_assembly_house_construction = {
		major = yes
		potential = {
			has_country_flag = building_assembly_house
			NOT = { has_global_flag = federation_assembly_house_build }
		}

		allow = {
			treasury = 50
			custom_trigger_tooltip = {
				tooltip = no_federation_crisis_tooltip
				NOT = { has_disaster = lake_federation_crisis }
			}
			if = {
				limit = { ai = no }
				NOT = { num_of_loans = 1 }
			}
		}
		effect = {
			add_treasury = -50
			custom_tooltip = invest_in_assembly_house_construction_tooltip
			hidden_effect = {
				REB = {
					change_variable = {
						which = lakeAssemblyHouse
						value = 2
					}
				}
				change_variable = {
					which = lakeInvestment
					value = 50
				}
			}
		}
		ai_will_do = {
			factor = 1
			
			modifier = {
				factor = 0
				
				NOT = { treasury = 100 }
			}
			
			modifier = {
				factor = 0
				
				is_at_war = yes
			}
		}
	}
	
	invest_in_central_bank_construction = {
		major = yes
		potential = {
			has_country_flag = creating_central_bank
			NOT = { has_global_flag = federation_central_bank_build }
		}

		allow = {
			treasury = 50
			capital_scope = { has_province_modifier = lake_local_bank }
			custom_trigger_tooltip = {
				tooltip = no_federation_crisis_tooltip
				NOT = { has_disaster = lake_federation_crisis }
			}
			if = {
				limit = { ai = no }
				NOT = { num_of_loans = 1 }
			}
		}
		effect = {
			add_treasury = -50
			custom_tooltip = invest_in_central_bank_construction_tooltip
			hidden_effect = {
				REB = {
					change_variable = {
						which = lakeCentralBank
						value = 2
					}
				}
				change_variable = {
					which = lakeInvestmentBank
					value = 50
				}
			}
		}
		ai_will_do = {
			factor = 1
			
			modifier = {
				factor = 0
				
				NOT = { treasury = 100 }
			}
			
			modifier = {
				factor = 0
				
				is_at_war = yes
			}
		}
	}
	
	invest_in_museum_construction = {
		major = yes
		potential = {
			has_country_flag = building_museum
			NOT = { has_global_flag = federation_museum_build }
		}

		allow = {
			treasury = 50
			if = {
				limit = { ai = no }
				NOT = { num_of_loans = 1 }
			}
			custom_trigger_tooltip = {
				tooltip = no_federation_crisis_tooltip
				NOT = { has_disaster = lake_federation_crisis }
			}
		}
		effect = {
			add_treasury = -50
			custom_tooltip = invest_in_museum_construction_tooltip
			hidden_effect = {
				REB = {
					change_variable = {
						which = museumInvestment
						value = 2
					}
				}
				change_variable = {
					which = museumInvestment
					value = 50
				}
			}
		}
		ai_will_do = {
			factor = 1
			
			modifier = {
				factor = 0
				
				NOT = { treasury = 100 }
			}
			
			modifier = {
				factor = 0
				
				is_at_war = yes
			}
		}
	}
	
	federation_ask_for_war_mandat = {
		potential = {
			has_country_modifier = lake_federation_member
			NOT = { has_country_modifier = federation_war_mandat }
			NOT = { has_country_modifier = recently_asked_war_mandat }
			NOT = { is_lake_federation_leader = yes }
		}

		allow = {
			is_at_war = no
			prestige = 0
			custom_trigger_tooltip = {
				tooltip = federation_leader_exist_tooltip
				any_known_country = { 
					is_lake_federation_leader = yes
					has_country_modifier = lake_federation_member
				}
			}
		}
		effect = {
			add_country_modifier = {
				name = recently_asked_war_mandat
				duration = 1825
			}
			random_known_country = {
				limit = { is_lake_federation_leader = yes }
				country_event = { id = lake.20 }
			}
			add_prestige = -5
			custom_tooltip = lake_ask_war_mandat_tooltip
		}
		ai_will_do = {
			factor = 1
			
			modifier = {
				factor = 0
				
				is_at_war = yes
			}
			
			modifier = {
				factor = 0
				
				NOT = { manpower_percentage = 0.50 }
			}
			
			modifier = {
				factor = 0
				
				has_country_modifier = federation_fighter
			}
			
			modifier = {
				factor = 0
				
				NOT = {
					any_neighbor_country = {
						ROOT = { has_casus_belli_against = PREV }
					}
				}
			}
			
			modifier = {
				factor = 0
				
				any_known_country = { 
					is_lake_federation_leader = yes
					NOT = {
						had_country_flag = {
							flag = recently_asked_war_right
							days = 120
						}
					}
				}
			}
		}
	}
	
	the_lake_federation = {
		major = yes
		potential = {
			has_country_modifier = lake_federation_member
			has_global_flag = lake_a_united_federation
		}

		allow = {
			is_lake_federation_leader = yes
			custom_trigger_tooltip = {
				tooltip = lake_the_constitution_tooltip
				has_country_flag = lake_the_constitution
			}
		}
		effect = {
			add_prestige = 25
			capital_scope = {
				add_base_tax = 2
				add_base_manpower = 2
				add_base_production = 2
			}
			custom_tooltip = unite_the_federation_tooltip
			hidden_effect = {
				change_tag = J33
				remove_country_modifier = lake_federation_member
				random_known_country = {
					limit = { 
						has_country_modifier = lake_federation_member
						OR = {
							AND = {
								is_subject = yes
								overlord = { has_country_modifier = lake_federation_member }
							}
							is_subject = no
						}
					}
					country_event = { id = lake.27 }
				}
				remove_non_electors_emperors_from_empire_effect = yes
				if = {
					limit = {
						NOT = { government_rank = 3 }
					}
					set_government_rank = 3
				}
				add_country_modifier = {
					name = "centralization_modifier"
					duration = 7300
				}
				country_event = { id = ideagroups.1 } #Swap Ideas
				every_province = {
					limit = {
						OR = {
							region = southern_isles_region
							region = northern_isles_region
						}
					}
					add_permanent_claim = J33
				}
				remove_country_modifier = lake_trade
				remove_country_modifier = lake_diplomatic_corps
				remove_country_modifier = federation_linguistic_academy
				remove_country_modifier = lake_growing_administration
				remove_country_modifier = lake_mainland_trade_established
				remove_country_modifier = federation_judiciary_system
				remove_country_modifier = federation_free_trade
				remove_country_modifier = federation_fighter
				remove_country_modifier = federation_subventionner
				remove_country_modifier = federation_leecher
				remove_country_modifier = federation_fighter_conscription
				remove_country_modifier = federation_conscription
				remove_country_modifier = federation_military_reform
				remove_country_modifier = federation_war_mandat
				remove_country_modifier = federation_cutdown
				remove_country_modifier = lake_ideas_melting_pot
				remove_country_modifier = lake_federation_observer
				remove_country_modifier = lake_cover_piracy
				remove_country_modifier = lake_anti_piracy_act
				remove_country_modifier = lake_caravan_act
				remove_country_modifier = lake_unrestricted_trade_route
				clear_federation_global_flag = yes
				add_government_reform = united_federation
				trigger_switch = {
					on_trigger = has_country_modifier
					
					guns_of_the_lake = { override_country_name = GUNS_LAKE }
					citizens_of_the_lake = { override_country_name = CITIZENS_LAKE }
					childrens_of_the_lake = { override_country_name = CHILDRENS_LAKE }
					workers_of_the_lake = { override_country_name = WORKERS_LAKE }
					soldiers_of_the_lake = { override_country_name = SOLDIERS_LAKE }
					traders_of_the_lake = { override_country_name = TRADERS_LAKE }
				}
				swap_non_generic_missions = yes
				set_global_flag = lake_federation_formed
			}
		}
		ai_will_do = {
			factor = 100
		}
	}

	rejoin_the_federation = {
		major = yes
		potential = {
			capital_scope = {
				OR = {
					region = southern_isles_region
					region = northern_isles_region
				}
			}
			NOT = { has_country_modifier = lake_federation_member }
			has_country_modifier = human_administration
			NOT = { exists = J33 }
			NOT = { has_global_flag = lake_federation_disbanded }
			#ai = yes
		}

		allow = {
			always = yes
		}
		effect = {
			add_stability = 1
			add_country_modifier = {
				name = lake_federation_member
				duration = -1
			}
			add_government_reform = lake_republic
			change_government = republic
			swap_non_generic_missions = yes
		}
		ai_will_do = {
			factor = 100
		}
	}
	
	assembly_house_politics = {
		major = yes
		potential = {
			has_global_flag = federation_assembly_house_build
			has_country_modifier = lake_federation_member
			NOT = { has_country_flag = federation_politics_menu_open }
		}

		allow = {
			need_1_politics = yes
			no_recent_federation_politics = yes
			is_at_war = no
			is_vassal = no
			if = {
				limit = { ai = yes }
				NOT = { has_country_modifier = fed_assembly_house_cooldown }
			}
		}
		effect = {
			country_event = { id = fed_politics.1 }
		}
		ai_will_do = {
			factor = 1
		}
		ai_importance = 50
	}
	
	disband_the_federation = {
		major = yes
		potential = {
			total_development = 300
			NOT = { has_country_modifier = lake_federation_member }
			NOT = { has_global_flag = lake_federation_disbanded }
			NOT = { has_global_flag = lake_federation_formed }
			any_owned_province = { superregion = forbidden_lands_superregion }
		}
		
		provinces_to_highlight = {
			OR = {
				region = southern_isles_region
				region = northern_isles_region
			}
			NOT = { country_or_subject_holds = ROOT }
		}

		allow = {
			calc_true_if = {
				all_province = {
					country_or_subject_holds = ROOT
					OR = {
						region = southern_isles_region
						region = northern_isles_region
					}
				}
				amount = 60
			}
		}
		effect = {
			add_prestige = 100
			every_country = {
				limit = { has_country_modifier = lake_federation_member }
				country_event = { id = lake.39 }
			}
			hidden_effect = { set_global_flag = lake_federation_disbanded }
			hidden_effect = { set_country_flag = disbanded_lake_federation }
			hidden_effect = { clear_federation_global_flag = yes }
		}
		ai_will_do = {
			factor = 1
		}
		ai_importance = 400
	}
	
	federation_religious_tension = {
		major = yes
		potential = {
			ai = no
			has_global_flag = lake_appeasing_tension
			has_country_modifier = lake_federation_member
		}

		allow = {
			hidden_trigger = { always = no }
		}
		
		effect = {
			custom_tooltip = federation_religious_tension_tooltip
		}
		ai_will_do = {
			factor = 1
		}
		ai_importance = 50
	}
	
	build_kalyin_temple = {
        major = yes
        potential = {
            has_country_modifier = lake_federation_member
            religion = kalyin_worshippers
            NOT = { has_global_flag = kalyin_temple }
        }
        allow = {
            owns_core_province = 5290
            years_of_income = 1.5
            5290 = { has_owner_religion = yes }
            adm_power = 100
        }
        effect = {
            add_years_of_income = -1.5
            add_adm_power = -100
            country_event = { 
                id = lake.52
                days = 365
            }
            set_global_flag = kalyin_temple
        }
        ai_will_do = {
            factor = 1
        }
    }
	
	help_qarshtuluu_separatist = {
        major = yes
        potential = {
			has_country_modifier = lake_federation_member
			NOT = { has_country_flag = qarshtulu_revolt }
            has_global_flag = qcity_revolt
			has_global_flag = federation_crisis_qcity
			has_global_flag = federation_crisis
        }
        allow = {
			NOT = { has_country_modifier = qarshtuluu_separatist_helped }
            treasury = 50
			adm_power = 10
			mil_power = 10
        }
        effect = {
            add_treasury = -50
			add_adm_power = -10
			add_mil_power = -10
			add_country_modifier = {
				name = qarshtuluu_separatist_helped
				duration = 180
			}
			hidden_effect = { REB = { change_variable = { q_rebel = 0.35 } } }
        }
        ai_will_do = {
            factor = 1
			
			modifier = {
				factor = 0
				is_at_war = yes
			}
			modifier = {
				factor = 0
				num_of_loans = 5
			}
			modifier = {
				factor = 0
				is_bankrupt = yes
			}
			
			modifier = {
				factor = 0
				has_opinion = {
					who = event_target:q_opressor
					value = 100
				}
			}
			
			modifier = {
				factor = 0
				alliance_with = event_target:q_opressor
			}
			
			modifier = {
				factor = 0
				REB = { check_variable = { q_rebel = 6 } }
			}
        }
    }
	
	pacify_qarshtuluu = {
        major = yes
        potential = {
			has_country_modifier = lake_federation_member
			has_country_flag = qarshtulu_revolt
            has_global_flag = qcity_revolt
			has_global_flag = federation_crisis_qcity
			has_global_flag = federation_crisis
			NOT = { has_country_flag = debug_menu }
        }
        allow = {
			custom_trigger_tooltip = {
				tooltip = pacify_qarshtuluu_tooltip
				had_country_flag = {
					flag = qarshtulu_revolt
					days = 730
				}
			}
			NOT = { REB = { check_variable = { q_rebel = 1000 } } }
			controls = 5256
			controls = 5257
			NOT = { has_spawned_rebels = nationalist_rebels }
        }
        effect = {
            country_event = { id = qcity.7 }
        }
        ai_will_do = {
            factor = 1
        }
    }
	
	organize_a_gun_tournament = {
        major = yes
        potential = {
			has_country_flag = federation_guns_tournament
        }
        allow = {
			years_of_income = 1
			is_at_war = no
			custom_trigger_tooltip = {
				tooltip = recent_guns_tournament_tooltip
				OR = {
					had_country_flag = {
						flag = recent_guns_tournament
						days = 3650
					}
					NOT = { has_country_flag = recent_guns_tournament }
				}
			}
        }
        effect = {
			add_years_of_income = -1
			hidden_effect = { set_country_flag = recent_guns_tournament }
            country_event = { id = lake.53 }
        }
        ai_will_do = {
            factor = 1
        }
    }
	
	build_the_triunic_road = {
        major = yes
        potential = {
			has_country_flag = the_triunic_road
        }
		provinces_to_highlight = {
			province_group = triunic_road
			NOT = { has_construction = building }
			NOT = { has_province_modifier = federation_triunic_road }
			any_neighbor_province = {
				OR = {
					has_province_modifier = federation_pearl_city
					has_province_modifier = federation_triunic_road
				}
			}
		}
		
        allow = {
			any_owned_province = {
				province_group = triunic_road
				NOT = { has_construction = building }
				NOT = { has_province_modifier = federation_triunic_road }
				any_neighbor_province = {
					OR = {
						has_province_modifier = federation_pearl_city
						has_province_modifier = federation_triunic_road
					}
				}
			}
			treasury = 50
        }
        effect = {
			random_owned_province = {
				limit = {
					province_group = triunic_road
					NOT = { has_construction = building }
					NOT = { has_province_modifier = federation_triunic_road }
					any_neighbor_province = {
						OR = {
							has_province_modifier = federation_pearl_city
							has_province_modifier = federation_triunic_road
						}
					}
				}
				add_building_construction = {
					building = triunic_road
					cost = 1
					speed = 1
				}
			}
        }
        ai_will_do = {
            factor = 1
        }
    }
	
	  construct_duty = {
        major = yes
        potential = {
            has_country_flag = federation_duty
            5253 = {
                NOT = { has_great_project = duty }
                NOT = { has_construction = great_project }
            }
        }
        allow = {
            owns_or_vassal_of = 5253
            is_subject = no
            treasury = 5000
        }
        effect = {
            add_treasury = -5000
            5253 = { add_great_project = duty }
        }
        ai_will_do = {
            factor = 1
        }
    }
    
    cancel_duty = {
        major = yes
        potential = {
            has_country_flag = federation_duty
            5253 = { has_construction = great_project }
        }
        allow = {
            5253 = { has_construction = great_project }
        }
        effect = {
			add_treasury = 3000
            5253 = {
                cancel_construction = yes
            }
        }
        ai_will_do = {
            factor = 0
        }
    }
	
	unite_q_city = {
        major = yes
        potential = {
            OR = {
				tag = J11
				tag = J12
			}
        }
		
		provinces_to_highlight = {
			OR = {
				owns = 5256
				owns = 5257
			}
			NOT = { owned_by = ROOT }
		}
		
        allow = {
			owns = 5256
			owns = 5257
			NOT = { J34 = { exists = yes } }
        }
        effect = {
			change_tag = J34
			if = {
				limit = { is_subject = no }
				lake_federation_gain_5_points = yes
			}
			add_prestige = 10
        }
        ai_will_do = {
            factor = 0
        }
    }
}
