country_decisions = {

	olavlund_nation = {
		major = yes
		potential = {
			OR = {
				primary_culture = olavish
			}
			normal_or_historical_nations = yes
			was_never_end_game_tag_trigger = yes
			NOT = { exists = Z16 } #Olavlund doesn't exist
		}
		
		provinces_to_highlight = {
			OR = {
				province_id = 976
				province_id = 975
				province_id = 978
				province_id = 985
			}
		
			NOT = { owned_by = ROOT }
		}
		
		allow = {
			is_free_or_tributary_trigger = yes
			is_nomad = no
			is_at_war = no
			OR = {
				primary_culture = olavish
			}
			AND = { 
				owns_core_province = 976
				owns_core_province = 975
				owns_core_province = 978
				owns_core_province = 985
				}
		}
		effect = {
			change_tag = Z16
			remove_non_electors_emperors_from_empire_effect = yes
			if = {
				limit = {
					NOT = { government_rank = 2 }
				}
				set_government_rank = 2
			}
			gerudian_coast_region = {
				limit = {
					NOT = { owned_by = ROOT }
				}
				add_permanent_claim = Z16
				
			}
			if = {
				limit = {
					has_custom_ideas = no
				}
				country_event = { id = ideagroups.1 } #Swap Ideas
			}
			add_prestige = 25
			add_country_modifier = {
				name = "centralization_modifier"
				duration = 7300
			}
			set_country_flag = formed_olavlund_flag
		}
		ai_will_do = {
			factor = 1
		}
		ai_importance = 400
	}
}