namespace = castanortrials

country_event = { #Black Castanorian Trial
	id = castanortrials.12
	title = castanortrials.12.t
	desc = castanortrials.12.d
	picture = COURT_eventPicture
	
	is_triggered_only = yes
	
	trigger = {
		has_reform = castanor_trials_reform
		has_regency = no
		has_consort_regency = no
	}
	
	option = { #Do Trial
		name = castanortrials.12.a
		ai_chance = {
			factor = 50
			modifier = {
				factor = 5
				OR = {
					ruler_has_personality = righteous_personality
					ruler_has_personality = zealot_personality
					ruler_has_personality = bold_fighter_personality
					ruler_has_personality = naive_personality
				}
			}
		}
		hidden_effect = { country_event = { id = castanortrials.13 } }
	}
	option = { #Don't do Trial
		name = castanortrials.12.b
		ai_chance = { 
			factor = 10
			modifier = {
				factor = 5
				OR = {
					ruler_has_personality = craven_personality
					ruler_has_personality = careful_personality
					ruler_has_personality = sinner_personality
				}
			}
			modifier = {
				factor = 0
				mission_completed = urviksten_gerudian_trials
			}
		}
		add_ruler_modifier = {
			name = castanortrials_refused_trial
			duration = -1
		}
	}
}
country_event = { #Black Castanorian Trial
	id = castanortrials.13
	title = castanortrials.13.t
	desc = castanortrials.13.d
	picture = DEBATE_REPUBLICAN_eventPicture
	
	is_triggered_only = yes
	hidden = yes
	
	option = { #Succeed
		name = castanortrials.13.a
		
		ai_chance = {
			factor = 50
			
			modifier = {
				factor = 4
				adm = 4
				NOT = { adm = 5 }
			}
			modifier = {
				factor = 4
				dip = 4
				NOT = { dip = 5 }
			}
			modifier = {
				factor = 4
				mil = 4
				NOT = { mil = 5 }
			}
			modifier = {
				factor = 6
				adm = 5
				NOT = { adm = 6 }
			}
			modifier = {
				factor = 6
				dip = 5
				NOT = { dip = 6 }
			}
			modifier = {
				factor = 6
				mil = 5
				NOT = { mil = 6 }
			}
			modifier = {
				factor = 20
				adm = 6
			}
			modifier = {
				factor = 20
				dip = 6
			}
			modifier = {
				factor = 20
				mil = 6
			}
			modifier = {
				factor = 2
				ruler_has_personality = incorruptible_personality
			}
			modifier = {
				factor = 2
				ruler_has_personality = just_personality
			}
			modifier = {
				factor = 2
				ruler_has_personality = free_thinker_personality
			}
		}
		country_event = { id = castanortrials.14 }
	}
	option = { #Fail
		name = castanortrials.13.b
		
		ai_chance = {
			factor = 50
			
			modifier = {
				factor = 2
				adm = 2
				NOT = { adm = 3 }
			}
			modifier = {
				factor = 2
				dip = 2
				NOT = { dip = 3 }
			}
			modifier = {
				factor = 2
				mil = 2
				NOT = { mil = 3 }
			}
			modifier = {
				factor = 2
				ruler_has_personality = babbling_buffoon_personality
			}
			modifier = {
				factor = 2
				ruler_has_personality = craven_personality
			}
			modifier = {
				factor = 0
				mission_completed = urviksten_gerudian_trials
			}
		}
		random_list = {
			75 = {
				country_event = { id = castanortrials.15 } #Fail Alive
			}
			25 = {
				country_event = { id = castanortrials.16 } #Fail Dead
			}
		}
	}
}
country_event = { #Trial Succeed
	id = castanortrials.14
	title = castanortrials.14.t
	desc = castanortrials.14.d
	picture = GOOD_WITH_MONARCH_eventPicture
	
	is_triggered_only = yes

	option = {
		name = castanortrials.14.a
		add_legitimacy = 10
		add_ruler_modifier = { name = castanortrials_castan duration = -1 }
		random_list = {
			33 = { 
				increase_ruler_adm_effect = yes
			}
			33 = { 
				increase_ruler_dip_effect = yes
			}
			33 = {
				increase_ruler_mil_effect = yes
			}
		}
	}
}
country_event = { #Trial Failalive
	id = castanortrials.15
	title = castanortrials.15.t
	desc = castanortrials.15.d
	picture = BAD_WITH_MONARCH_eventPicture
	
	is_triggered_only = yes
	
	option = {
		name = castanortrials.15.a
		
		add_legitimacy = -10
		add_prestige = -10
		add_stability = -1
		add_ruler_modifier = { name = castanortrials_failed_alive duration = -1}
	}
	option = {
		name = castanortrials.15.b
		
		add_legitimacy = -20
		add_prestige = -20
		add_ruler_modifier = { name = castanortrials_failed_alive duration = -1}
	}
}
country_event = {
	id = castanortrials.16
	title = castanortrials.16.t
	desc = castanortrials.16.d
	picture = KING_SICK_IN_BED_eventPicture
	
	is_triggered_only = yes
	
	option = {
		name = castanortrials.16.a
		
		kill_ruler = yes
		add_stability = -1
		add_country_modifier = { name = "castanortrials_failed_dead" duration = 7300 }
	}
}