namespace = precursor_relics

# Adding a relics
province_event = {
	id = precursor_relics.1
	title = precursor_relics.1.t
	desc = precursor_relics.1.d
	picture = TRADEGOODS_eventPicture
	goto = root
	
	is_mtth_scaled_to_size = 1
	
	mean_time_to_happen  = {
		years = 800
		modifier = {
			factor = 0.3
			
			OR = {
				continent = north_america
				continent = south_america
			}
		}
		
		modifier = {
			factor = 0.8
			
			has_port = yes
			OR = {
				continent = europe
				continent = africa
			}
		}
		
		modifier = {
			factor = 1.6
			
			has_port = no
			OR = {
				continent = europe
				continent = africa
			}
		}
	}
	
	trigger = {
		precursor_relics_can_spawn = yes
	}
	
	option = {
        name = precursor_relics.1.a
        ai_chance = { factor = 100 }
		ROOT = {
			change_trade_goods = precursor_relics
			add_devastation = 10
		}
		set_add_relics_count = yes
	}
	
	option = {
        name = precursor_relics.1.b
        ai_chance = { factor = 0 }
		
		add_prestige = 10
	}
}

# Removing a relics
province_event = {
	id = precursor_relics.2
	title = precursor_relics.2.t
	desc = precursor_relics.2.d
	picture = ARTWORK_eventPicture
	goto = root
	
	mean_time_to_happen = {
		years = 40
		
		modifier = {
			factor = 1.5
			
			REB = {
				NOT = {
					check_variable = {
						which = num_precursor_relics
						value = 20
					}
				}
				check_variable = {
					which = num_precursor_relics
					value = 10
				}
			}
		}
		
		modifier = {
			factor = 2
			
			REB = {
				NOT = {
					check_variable = {
						which = num_precursor_relics
						value = 10
					}
				}
			}
		}
		modifier = {
			factor = 3
			
			has_province_modifier = eordellonian_expedition_site
		}
	}
	
	trigger = {
		has_global_flag = max_precursor_relics
		trade_goods = precursor_relics
		REB = {
			check_variable = {
				which = num_precursor_relics
				value = 5
			}
		}
		NOT = {
			has_province_modifier = pr_great_ruin
			has_province_modifier = mag_big_laboratory
			has_province_modifier = mage_stash
			has_province_modifier = aelnar_exclusive_trade
			has_province_flag = permanent_relics
		}
	}
	
	option = {
		name = precursor_relics.2.a
		ai_chance = { factor = 100 }
		ROOT = {
			change_trade_goods = unknown
		}
		if = {
			limit = {
				NOT = {has_province_modifier = eordellonian_expedition_site}
			}
			hidden_effect = {
				REB = {
					subtract_variable = {
						which = num_precursor_relics
						value = 1
					}
				}
			}
		}
	}
}

#Relics = 30, we set the Global flag that will stop them appearing
country_event = {
	id = precursor_relics.3
	title = precursor_relics.3.t
	desc = precursor_relics.3.d
	picture = BUDDHISM_LAMA_eventPicture
	
	hidden = yes
	fire_only_once = yes
	
	mean_time_to_happen = {
		days = 1
	}
	
	trigger = {
		REB = {
			check_variable = {
				which = num_precursor_relics
				value = 30
			}
		}
	}
	
	option = {
		name = precursor_relics.3.a
		ai_chance = { factor = 100 }
		set_global_flag = max_precursor_relics
	}
}


#First rise in price, when there is between 18 and 22 relics => 7.5gold
country_event = {
	id = precursor_relics.4
	title = precursor_relics.4.t
	desc = precursor_relics.4.d
	picture = ELECTION_REPUBLICAN_eventPicture
	
	fire_only_once = yes
	major = yes
	mean_time_to_happen = {
		years = 5
	}
	
	trigger = {
		has_global_flag = max_precursor_relics
		precursor_relics = 1
		REB = {
			NOT = {
				check_variable = {
					which = num_precursor_relics
					value = 22
				}
			}
		}
	}
	
	option = {
		name = precursor_relics.4.a
		ai_chance = {factor = 100}
		
		set_global_flag = initial_precursor_relics_shortage
		change_price = {
			trade_goods = precursor_relics
			key = initial_precursor_relics_shortage
			
			value = 1
			duration = -1
		}
	}
}

#Second Rise in price, when there is between 15 and 10 => 8.5gold
country_event = {
	id = precursor_relics.5
	title = precursor_relics.5.t
	desc = precursor_relics.5.d
	picture = TRADE_GOODS_PLANTATION_GOODS_IN_WAREHOUSE_eventPicture
	
	fire_only_once = yes
	major = yes
	mean_time_to_happen = {
		years = 5
	}
	
	trigger = {
		has_global_flag = max_precursor_relics
		precursor_relics = 1
		REB = {
			NOT = {
				check_variable = {
					which = num_precursor_relics
					value = 15
				}
			}
		}
	}
	
	option = {
		name = precursor_relics.5.a
		ai_chance = {factor = 100}
		
		set_global_flag = second_precursor_relics_shortage
		change_price = {
			trade_goods = precursor_relics
			key = second_precursor_relics_shortage
			
			value = 1
			duration = -1
		}
	}
}

#Last rise, when between 8 and 1 => 12.5gold
country_event = {
	id = precursor_relics.6
	title = precursor_relics.6.t
	desc = precursor_relics.6.d
	picture = TRADE_GOODS_PLANTATION_GOODS_IN_WAREHOUSE_eventPicture
	
	fire_only_once = yes
	major = yes
	mean_time_to_happen = {
		years = 5
	}
	
	trigger = {
		has_global_flag = max_precursor_relics
		precursor_relics = 1
		REB = {
			NOT = {
				check_variable = {
					which = num_precursor_relics
					value = 8
				}
			}
		}
	}
	
	option = {
		name = precursor_relics.6.a
		ai_chance = {factor = 100}
		
		set_global_flag = last_precursor_relics_shortage
		change_price = {
			trade_goods = precursor_relics
			key = last_precursor_relics_shortage
			
			value = 1
			duration = -1
		}
	}
}

# country_event = {
	# id = precursor_relics.7
	# title = precursor_relics.7.t
	# desc = precursor_relics.7.d
	# picture = TRADE_GOODS_PLANTATION_GOODS_IN_WAREHOUSE_eventPicture
	
	# is_triggered_only = yes
	
	# trigger = {
		# always = yes
	# }
	
	# option = {
		# name = precursor_relics.7.a
		# ai_chance = {factor = 100}
	# }
# }

### Great ruin never tarnish
province_event = {
	id = precursor_relics.8
	title = precursor_relics.8.t
	desc = precursor_relics.8.d
	picture = FEAST_eventPicture
	goto = root
	
	mean_time_to_happen = {
		years = 100
	}
	
	trigger = {
		trade_goods = precursor_relics
		NOT = { has_province_modifier = eordellonian_expedition_site }
		NOT = { has_province_modifier = pr_great_ruin }
		NOT = {
			province_id = 2495 ## We dont want it to appear on province wich start the game with precursor_relics
			province_id = 2500
			REB = {
				check_variable = {
					which = num_ruin
					value = 5
				}
			}
		}
	}
	
	option = {
		name = precursor_relics.8.a
		ai_chance = {factor = 100}
		add_permanent_province_modifier = {
			name = pr_great_ruin
			duration = -1
		}
	}
}

#Rise in age of unravelling => 5gold
country_event = {
	id = precursor_relics.9
	title = precursor_relics.9.t
	desc = precursor_relics.9.d
	picture = TRADE_GOODS_PLANTATION_GOODS_IN_WAREHOUSE_eventPicture
	
	fire_only_once = yes
	major = yes
	mean_time_to_happen = {
		years = 10
	}
	
	trigger = {
		current_age = age_of_reformation
	}
	
	option = {
		name = precursor_relics.9.a
		ai_chance = { factor = 100 }
		
		set_global_flag = relics_value
		change_price = {
			trade_goods = precursor_relics
			key = relics_value_tooltip
			
			value = 1
			duration = -1
		}
	}
}